..................
----------------------------------------------------------------------
Ran 18 tests in 0.660s

OK
Name             Stmts   Miss Branch BrPart  Cover   Missing
------------------------------------------------------------
Collatz.py          55      0     28      1    99%   96->115
TestCollatz.py      75      0      0      0   100%
------------------------------------------------------------
TOTAL              130      0     28      1    99%
