1 10 20
100 200 125
201 210 89
900 1000 174
8812 9986 260
665 60 145
3827 815 238
6349 6152 262
2520 1480 209
7315 9426 260
7560 4416 262
2035 8872 262
7337 9501 260
1678 8638 262
6770 4334 262
7334 9849 260
5703 8684 262
874 5498 238
6193 6680 244
8945 6915 257
6459 3485 262
9840 6194 260
6087 5886 187
385 7297 262
1252 2333 183
4008 1022 238
664 4102 238
8214 5828 262
5677 5073 236
64 3400 217
6409 2263 262
6466 8847 257
6182 417 262
5323 2315 238
2520 122 209
4959 5929 236
3452 9896 262
7134 771 262
2290 1423 183
9969 6212 260
2278 1926 183
1300 8906 262
5903 1959 238
4252 2309 238
7120 3251 262
2201 8943 262
4092 9038 262
5226 8347 262
4582 3082 238
785 5784 238
3639 9486 262
7341 7722 239
4200 3981 189
9487 8552 260
8413 8042 234
8926 664 262
4767 1016 238
6726 8424 257
935 367 179
7815 5052 262
2150 9842 262
4726 6072 236
1234 6215 262
1920 7421 262
207 835 171
8486 9495 260
9655 6135 262
9130 3674 262
2459 4334 238
3029 1171 217
5640 4119 236
3924 685 238
1661 7496 262
2256 7244 262
836 9255 262
9840 5563 262
5679 9219 262
9032 3002 262
7673 6091 262
7461 394 262
1305 4212 238
2549 6165 238
7929 9459 260
1840 6666 262
5580 7266 262
7685 3979 262
3050 4226 238
3009 6000 238
9713 4389 262
6041 5401 236
3483 1033 217
4707 3584 238
5521 856 238
3417 1898 217
5579 2272 238
4329 1316 238
767 8342 262
3016 1734 217
3531 3382 181
4129 4394 215
6394 7560 257
29 9983 262
6832 2383 262
1649 1402 172
1909 7012 262
863 7701 262
8168 265 262
1012 7563 262
1600 7200 262
6746 6955 257
897 3880 238
6211 407 262
9667 7554 260
6309 4401 262
9411 7382 260
976 6820 262
6274 5331 262
3692 1947 217
960 933 174
2642 5866 238
1921 9880 262
1684 9869 262
7805 662 262
1724 3753 238
764 6533 262
984 2583 209
2172 1376 180
2700 466 209
6679 4729 262
1662 4964 238
9649 4246 262
1717 5344 238
8786 2923 262
3983 1946 238
6869 6840 151
8262 2219 262
5029 1768 238
2353 378 183
2323 5502 238
8842 9187 247
1723 1068 182
9036 1730 262
5346 6113 236
3970 5111 215
3132 3450 199
8673 8929 216
7622 833 262
5122 3 238
2700 3716 238
929 9338 262
4746 3673 238
835 3072 217
3167 3646 199
9415 8937 260
